area,accomplishment,year,where,details
IEEE Applied Power Electronics Conference and Exposition (APEC).,Outstanding Poster Award,2023,"Orlando, Fla",“A Low-Ripple High-Frequency High-Voltage Power Supply for Ion Pumps” by Z. Ye; K. Surakitbovorn; S. Park; J. Rivas-Davila
IEEE Transactions on Power Electronics,Power Electronics Prize Letter Award,2021,,"“6.78-MHz Wireless Power Transfer With Self-Resonant Coils at 95% DC–DC Efficiency,” by L. Gu; G. Zulauf; A. Stein; P. A. Kyaw; T. Chen and J. M. R. Davila"
Workshop on Control and Modeling for Power Electronics,Best paper award ,2021,"Cartagena, Colombia","“A High Frequency Resonant Gate Driver for SiC MOSFETs,” by Z. Ye; Z. Tong;  L. Gu and J. Rivas-Davila"
Workshop on Control and Modeling for Power Electronics,Best paper award ,2020,Aalborg Denmark,"“1 kW, Multi-MHz Wireless Charging for Electric Transportation,” by T. Phan; G. Zulauf; J. A. Fan and J. M. Rivas-Davila,"
NXP Homebrew RF design Challenge,Third place award,2019,,"“A High Efficiency Switchmode RF Amplifier using a MRF101AN LDMOS Device for a CubeSat Plasma Thruster” by W. Braun, D. Tsifakis, C. Charles, R. Boswell, J. Rivas-Davila"
IEEE Applied Power Electronics Conference and Exposition (APEC).,Best presentation award,2019,"Anaheim, CA","“Empirical Circuit Model for Output Capacitance Losses in Silicon Carbide Power Devices” by Z. Tong, S. Park and J. Rivas-Davila"
International Power Electronics Conference,Best paper award ,2018,"Niigata, Japan",“Design of a GaN-Based Wireless Power Transfer System at 13.56 MHz to Replace Conventional Wired Connection in a Vehicle” K. Surakitbovorn and J. Rivas-Davilla.
Workshop on Control and Modeling for Power Electronics,Best paper award ,2018,"Padova, Italy","“High-Frequency Bidirectional Resonant Converter for High Conversion Ratio and Variable Load Operation” by Lei Gu, Kawin Surakitbovorn, Grayson Zulauf, Sombuddha Chakraborty and Juan Rivas-Davila."
IEEE Industry Applications Society ,Second Price  Will Portnoy,2017,"Tampa, Fl",“Inductance Cancellation in RF resonant power converters”
Workshop on Control and Modeling for Power Electronics,Best Paper Award,2015,"Vancuver, Ca","“13.56 MHz high voltage multi-level resonant DC-DC converter,” by L. Raymond, W. Liang, L. Gu and J. R. Davila."
CAREER Award,SF Faculty Early Career Development (CAREER) Program,2013,,Project: “Power Converters with embedded passive components” by Rivas J.
IEEE Transactions on Power Electronics,Second Prize Paper Award,2012,,"High- Frequency Resonant SEPIC Converter With Wide Input and Output Voltage Ranges” by Hu, J.; Sagneri, A.D.; Rivas, J. M.; Han, Y.; Davis, S. M.; Monticelli, D. J. Perreault; IEEE Transactions on Power Electronics, vol.27, no.1, pp.189-200, Jan. 2012"
Power Electronics Specialists Conference,Conference Paper Award,2008,"Rhodes, Greece","“A Very High Frequency dc-dc Converter Based on a Class Φ2 Resonant Inverter” by Juan M. Rivas, Olivia Leitermann, Yehui Han and David J. Perreault. "
IEEE Transactions on Power Electronics,Best Paper Award,2007,,"“Resistance Compression Networks for Radio- Frequency Power conversion” by  Han Y, Leitermann O, Jackson D, Rivas J, Perreault D. IEEE Transactions on Power Electronics , Page(s): 41-53, Jan 2007."
