title,university,date,where
“High-Frequency Power Conversion with Wide Bandgap Semiconductors”,Universidad Autonoma de San Luis Potosi,November 13 2020,Remote seminar
“High-Frequency Power Conversion with Wide Bandgap Semiconductors”,University of Pennsylvania,October 27 2020,Remote seminar
“Very high frequency research directions and wireless power transfer”,Chinese University of Hong Kong,September 12 2018,"Shenzhen, PRC"
“Very High Frequency power electronics: Research directions and new applications” ,"ETH, Zurich, Switzerland",October 23 2017,"Zurich, Switzerland"
“High-Frequency Power Converters”,International Workshop on Power Electronics,October 27 2016,"Kyoto, Japan"
“Power Electronics at the SUPER-Lab”,Massachusetts Institute of Technology,"June 16, 2016","Cambridge, MA"
“Power Electronics at the SUPER-Lab”,UCLA,"March 28, 2016 ","Los Angeles, CA"
“Power Electronics at the SUPER-Lab”,PELS chapter at UC Berkeley,"November 4, 2015","Berkeley, CA"
“Revolutionizing Power Electronics with Very High Frequency Power Conversion”,Stanford University’s Energy and Environment Affiliates Program,"January 14, 2014","Stanford, CA"
“Circuit Design for VHF Power Conversion”,Center for Integrated Circuits and Systems at MIT,"November 9, 2006","Cambridge, MA"
